Katedra;Leden;Unor;Brezen;Duben;Kveten;Cerven;Cervenec;Srpen;Zari;Rijen;Listopad;Prosinec
Cesky jazyk;21;19;24;40;45;52;31;18;25;20;15;30
AJ;6;6;7;10;15;13;9;12;7;4;6;8
Matika;7;6;8;13;17;18;15;5;5;0;0;0
Dejepis;0;0;0;35;36;40;41;20;18;14;10;12
VV;18;20;20;45;63;61;35;20;16;21;17;52
TV;15;12;14;22;38;36;34;21;12;10;13;18
